Filtering functions • Rcongas
…
Known genes

We have observed high variability across ribosomal (r) and mitochondrial (m) genes, which confounds signals in the data,

We usually remove these genes, using function filter_known_genes. This function takes in input a what parameter (default mr) which determines what genes should be removed, plus an extra specials list of Hugo Symbols to remove.

# The default value for `specials`
formals(filter_known_genes)$specials
#> [1] "MALAT1"

Mitochondrial and ribosomal genes are identified by name using regular expression "MT" or "RP[SL]", respectively.

data('example_input')
example_input$rna %>% print
#> # A tibble: 201,459 x 6
#>    gene     chr      from      to cell                                 value
#>    <chr>    <chr>   <int>   <int> <chr>                                <int>
#>  1 NOC2L    chr1   944203  959309 bcc.su008.pre.tumor_AAGGCAGTCACCGTAA     2
#>  2 AGRN     chr1  1020120 1056118 bcc.su008.pre.tumor_AAGGCAGTCACCGTAA     1
#>  3 SDF4     chr1  1216909 1232067 bcc.su008.pre.tumor_AAGGCAGTCACCGTAA     1
#>  4 ACAP3    chr1  1292390 1309609 bcc.su008.pre.tumor_AAGGCAGTCACCGTAA     2
#>  5 CPTP     chr1  1324756 1328896 bcc.su008.pre.tumor_AAGGCAGTCACCGTAA     1
#>  6 AURKAIP1 chr1  1373730 1375495 bcc.su008.pre.tumor_AAGGCAGTCACCGTAA     1
#>  7 CCNL2    chr1  1385711 1399335 bcc.su008.pre.tumor_AAGGCAGTCACCGTAA     2
#>  8 MRPL20   chr1  1401909 1407293 bcc.su008.pre.tumor_AAGGCAGTCACCGTAA     1
#>  9 CDK11B   chr1  1635225 1659012 bcc.su008.pre.tumor_AAGGCAGTCACCGTAA     1
#> 10 CDK11A   chr1  1702379 1724357 bcc.su008.pre.tumor_AAGGCAGTCACCGTAA     1
#> # … with 201,449 more rows

# Remove default 
example_input$rna %>% filter_known_genes()
#> 
#> ── Ribosomal
#> ℹ n = 166 genes found.
#> MRPL20, RPL22, RPL11, MRPS15, RPS8, RPL5 , ...
#> 
#> ── Mitochondrial
#> ℹ 180 genes found.
#> ICMT, CAMTA1, MTF2, HENMT1, LAMTOR5, MTMR11 , ...
#> 
#> ── Specials
#> ℹ n = 1 genes found.
#> # A tibble: 190,566 x 6
#>    gene     chr      from      to cell                                 value
#>    <chr>    <chr>   <int>   <int> <chr>                                <int>
#>  1 NOC2L    chr1   944203  959309 bcc.su008.pre.tumor_AAGGCAGTCACCGTAA     2
#>  2 AGRN     chr1  1020120 1056118 bcc.su008.pre.tumor_AAGGCAGTCACCGTAA     1
#>  3 SDF4     chr1  1216909 1232067 bcc.su008.pre.tumor_AAGGCAGTCACCGTAA     1
#>  4 ACAP3    chr1  1292390 1309609 bcc.su008.pre.tumor_AAGGCAGTCACCGTAA     2
#>  5 CPTP     chr1  1324756 1328896 bcc.su008.pre.tumor_AAGGCAGTCACCGTAA     1
#>  6 AURKAIP1 chr1  1373730 1375495 bcc.su008.pre.tumor_AAGGCAGTCACCGTAA     1
#>  7 CCNL2    chr1  1385711 1399335 bcc.su008.pre.tumor_AAGGCAGTCACCGTAA     2
#>  8 CDK11B   chr1  1635225 1659012 bcc.su008.pre.tumor_AAGGCAGTCACCGTAA     1
#>  9 CDK11A   chr1  1702379 1724357 bcc.su008.pre.tumor_AAGGCAGTCACCGTAA     1
#> 10 WRAP73   chr1  3630767 3652761 bcc.su008.pre.tumor_AAGGCAGTCACCGTAA     2
#> # … with 190,556 more rows

# Remove only ribosomal 
example_input$rna %>%  filter_known_genes(what = 'r', specials = list())
#> 
#> ── Ribosomal
#> ℹ n = 166 genes found.
#> MRPL20, RPL22, RPL11, MRPS15, RPS8, RPL5 , ...
#> # A tibble: 194,236 x 6
#>    gene     chr      from      to cell                                 value
#>    <chr>    <chr>   <int>   <int> <chr>                                <int>
#>  1 NOC2L    chr1   944203  959309 bcc.su008.pre.tumor_AAGGCAGTCACCGTAA     2
#>  2 AGRN     chr1  1020120 1056118 bcc.su008.pre.tumor_AAGGCAGTCACCGTAA     1
#>  3 SDF4     chr1  1216909 1232067 bcc.su008.pre.tumor_AAGGCAGTCACCGTAA     1
#>  4 ACAP3    chr1  1292390 1309609 bcc.su008.pre.tumor_AAGGCAGTCACCGTAA     2
#>  5 CPTP     chr1  1324756 1328896 bcc.su008.pre.tumor_AAGGCAGTCACCGTAA     1
#>  6 AURKAIP1 chr1  1373730 1375495 bcc.su008.pre.tumor_AAGGCAGTCACCGTAA     1
#>  7 CCNL2    chr1  1385711 1399335 bcc.su008.pre.tumor_AAGGCAGTCACCGTAA     2
#>  8 CDK11B   chr1  1635225 1659012 bcc.su008.pre.tumor_AAGGCAGTCACCGTAA     1
#>  9 CDK11A   chr1  1702379 1724357 bcc.su008.pre.tumor_AAGGCAGTCACCGTAA     1
#> 10 WRAP73   chr1  3630767 3652761 bcc.su008.pre.tumor_AAGGCAGTCACCGTAA     2
#> # … with 194,226 more rows
…
