Getters • Rcongas
…
# Cluster size
get_clusters_size(rcongas_example)
#>   1   2 
#> 369 135

# Cluster size (normalised)
get_clusters_size(rcongas_example, normalise = TRUE)
#>         1         2 
#> 0.7321429 0.2678571

Then you can also obtain the CNA profile estimated for each one of the \(k\) clones, using get_clones_ploidy. This reports, for every segment the lognormal CNA value estimated by CONGAS, as well as the segment mean, and the CN value (which is the offset to the mean of the segment). Values from this getter can be automatically filtered for certain chromsome ids, and clusters.

# Get all data (all clones, all chromsomes)
get_clones_ploidy(rcongas_example)
#> # A tibble: 56 x 7
#>    chr        from        to cluster       CN segment_mean lognorm_CN
#>    <chr>     <dbl>     <dbl> <chr>      <dbl>        <dbl>      <dbl>
#>  1 chr1   12600001 156000000 1       -0.00547         1.27       1.26
#>  2 chr1  156000001 249300000 1        0.00502         1.20       1.21
#>  3 chr2   26250001 159900000 1       -0.00468         1.21       1.20
#>  4 chr2  176850001 243300000 1        0.00283         1.17       1.17
#>  5 chr3   34350001  86850000 1       -0.0163          1.07       1.05
#>  6 chr3  114000001 152100000 1        0.0197          1.28       1.30
#>  7 chr4   70500001 135300000 1        0.0193          1.17       1.19
#>  8 chr5   54150001 127050000 1       -0.00631         1.10       1.09
#>  9 chr5  129150001 150600000 1       -0.0201          1.32       1.30
#> 10 chr6   14850001  32400000 1       -0.0512          1.35       1.30
#> # … with 46 more rows

# Zoom in one specific chromosome
get_clones_ploidy(rcongas_example, chromosomes = 'chr2')
#> # A tibble: 4 x 7
#>   chr        from        to cluster       CN segment_mean lognorm_CN
#>   <chr>     <dbl>     <dbl> <chr>      <dbl>        <dbl>      <dbl>
#> 1 chr2   26250001 159900000 1       -0.00468         1.21       1.20
#> 2 chr2  176850001 243300000 1        0.00283         1.17       1.17
#> 3 chr2   26250001 159900000 2        0.00468         1.21       1.21
#> 4 chr2  176850001 243300000 2       -0.00283         1.17       1.17

# Zoom in one specific cluster, here "1"
get_clones_ploidy(rcongas_example, clusters = '1')
#> # A tibble: 28 x 7
#>    chr        from        to cluster       CN segment_mean lognorm_CN
#>    <chr>     <dbl>     <dbl> <chr>      <dbl>        <dbl>      <dbl>
#>  1 chr1   12600001 156000000 1       -0.00547         1.27       1.26
#>  2 chr1  156000001 249300000 1        0.00502         1.20       1.21
#>  3 chr2   26250001 159900000 1       -0.00468         1.21       1.20
#>  4 chr2  176850001 243300000 1        0.00283         1.17       1.17
#>  5 chr3   34350001  86850000 1       -0.0163          1.07       1.05
#>  6 chr3  114000001 152100000 1        0.0197          1.28       1.30
#>  7 chr4   70500001 135300000 1        0.0193          1.17       1.19
#>  8 chr5   54150001 127050000 1       -0.00631         1.10       1.09
#>  9 chr5  129150001 150600000 1       -0.0201          1.32       1.30
#> 10 chr6   14850001  32400000 1       -0.0512          1.35       1.30
#> # … with 18 more rows

# Zoom in one specific chromosome and cluster
get_clones_ploidy(rcongas_example, chromosomes = 'chr2', clusters = "1")
#> # A tibble: 2 x 7
#>   chr        from        to cluster       CN segment_mean lognorm_CN
#>   <chr>     <dbl>     <dbl> <chr>      <dbl>        <dbl>      <dbl>
#> 1 chr2   26250001 159900000 1       -0.00468         1.21       1.20
#> 2 chr2  176850001 243300000 1        0.00283         1.17       1.17

Then you can also obtain the clustering assignments for each one of the input cells, using function get_clusters. This getter can also subset cells in order to contain only those that belong to a specific set of clusters.

# Get all cells at once
get_clusters(rcongas_example)
#> # A tibble: 504 x 2
#>    cell               cluster
#>    <chr>              <chr>  
#>  1 AAACCTGTCGACAGCC-1 2      
#>  2 AAAGATGGTAATAGCA-1 1      
#>  3 AACACGTAGCTATGCT-1 1      
#>  4 AACTCCCAGACAGGCT-1 2      
#>  5 AACTCCCGTACACCGC-1 1      
#>  6 AACTGGTCAAAGAATC-1 2      
#>  7 AACTGGTCAAAGTGCG-1 1      
#>  8 AACTTTCGTGGCTCCA-1 2      
#>  9 AACTTTCTCGGTTAAC-1 2      
#> 10 AAGACCTAGCCAGTAG-1 2      
#> # … with 494 more rows

# Subset to cluster "1"
get_clusters(rcongas_example, clusters = '1')
#> # A tibble: 369 x 2
#>    cell               cluster
#>    <chr>              <chr>  
#>  1 AAAGATGGTAATAGCA-1 1      
#>  2 AACACGTAGCTATGCT-1 1      
#>  3 AACTCCCGTACACCGC-1 1      
#>  4 AACTGGTCAAAGTGCG-1 1      
#>  5 AAGCCGCGTTGTACAC-1 1      
#>  6 AATCCAGCATTTCAGG-1 1      
#>  7 AATCCAGTCCGAACGC-1 1      
#>  8 AATCGGTAGTGTTGAA-1 1      
#>  9 AATCGGTTCTGTCTAT-1 1      
#> 10 ACACCAACAGAAGCAC-1 1      
#> # … with 359 more rows
Stored input data

get_input_segmentation to obtain information about the input DNA segmentation;

get_input_raw_data and get_counts to obtain the raw input data (i.e., single-cell counts) and the counts per segment used by CONGAS.

The input DNA segmentation is stored in the result of a CONGAS run. You can access that with get_input_segmentation and create simple filters based on chromosome ids.

Note that this tibble contains also columns that report the ploidy of the input segment (ploidy_real), the actual number of used genes retained that map to each segment (mu), and the total number of genes that map to the segments (fixed_mu).

Genes mapped to segments are filtered as explained in XXXX. Column segment_id is just a key to identify univocally the input segments to CONGAS.

# All the input segments
get_input_segmentation(rcongas_example)
#> # A tibble: 28 x 7
#>         size ploidy_real    mu fixed_mu chr        from        to
#>        <dbl>       <int> <dbl>    <int> <chr>     <int>     <int>
#>  1 143399999           2  202.      603 chr1   12600001 156000000
#>  2  93299999           3  116       350 chr1  156000001 249300000
#>  3 133649999           2  130.      386 chr2   26250001 159900000
#>  4  66449999           2   61       192 chr2  176850001 243300000
#>  5  52499999           1   41       165 chr3   34350001  86850000
#>  6  38099999           3   51       134 chr3  114000001 152100000
#>  7  64799999           2   39       128 chr4   70500001 135300000
#>  8  72899999           1   37       154 chr5   54150001 127050000
#>  9  21449999           2   35        98 chr5  129150001 150600000
#> 10  17549999           3   44       126 chr6   14850001  32400000
#> # … with 18 more rows
…
# Just the 2x2 submatrix (genes on the rows, cells on the columns)
print(raw_input_gene_by_cell[1:2, 1:2])
#>          AAACCTGTCGACAGCC-1 AAAGATGGTAATAGCA-1
#> DHRS3                     0                  0
#> HNRNPCL1                  0                  0

The data processed by CONGAS are counts mapped to segments, which are stored in a matrix that contains cells on rows, and segments on columns. This matrix can be extracted in long tidy format; the actual counts value can be obtained before or after normalisation, and can be subset to certain portions of the cancer genome.

In this long view we report also the cluster id for each of the input cells.

# Normalised data (default)
get_counts(rcongas_example)
#> # A tibble: 14,112 x 6
#>    chr       from        to cell                   n cluster
#>    <chr>    <int>     <int> <chr>              <dbl> <chr>  
#>  1 chr1  12600001 156000000 AAACCTGTCGACAGCC-1  257. 2      
#>  2 chr1  12600001 156000000 AAAGATGGTAATAGCA-1  262. 1      
#>  3 chr1  12600001 156000000 AACACGTAGCTATGCT-1  242. 1      
#>  4 chr1  12600001 156000000 AACTCCCAGACAGGCT-1  253. 2      
#>  5 chr1  12600001 156000000 AACTCCCGTACACCGC-1  257. 1      
#>  6 chr1  12600001 156000000 AACTGGTCAAAGAATC-1  220. 2      
#>  7 chr1  12600001 156000000 AACTGGTCAAAGTGCG-1  234. 1      
#>  8 chr1  12600001 156000000 AACTTTCGTGGCTCCA-1  232. 2      
#>  9 chr1  12600001 156000000 AACTTTCTCGGTTAAC-1  265. 2      
#> 10 chr1  12600001 156000000 AAGACCTAGCCAGTAG-1  247. 2      
#> # … with 14,102 more rows

# A view on a certain chromosome 
get_counts(rcongas_example,
           chromosomes = 'chr3')
#> # A tibble: 1,008 x 6
#>    chr       from       to cell                   n cluster
#>    <chr>    <int>    <int> <chr>              <dbl> <chr>  
#>  1 chr3  34350001 86850000 AAACCTGTCGACAGCC-1  45.5 2      
#>  2 chr3  34350001 86850000 AAAGATGGTAATAGCA-1  42.7 1      
#>  3 chr3  34350001 86850000 AACACGTAGCTATGCT-1  46.3 1      
#>  4 chr3  34350001 86850000 AACTCCCAGACAGGCT-1  36.6 2      
#>  5 chr3  34350001 86850000 AACTCCCGTACACCGC-1  32.9 1      
#>  6 chr3  34350001 86850000 AACTGGTCAAAGAATC-1  54.7 2      
#>  7 chr3  34350001 86850000 AACTGGTCAAAGTGCG-1  35.9 1      
#>  8 chr3  34350001 86850000 AACTTTCGTGGCTCCA-1  37.7 2      
#>  9 chr3  34350001 86850000 AACTTTCTCGGTTAAC-1  43.7 2      
#> 10 chr3  34350001 86850000 AAGACCTAGCCAGTAG-1  35.6 2      
#> # … with 998 more rows

# Un-normalised data
get_counts(rcongas_example, normalise = FALSE)
#> # A tibble: 14,112 x 6
#>    chr       from        to cell                   n cluster
#>    <chr>    <int>     <int> <chr>              <dbl> <chr>  
#>  1 chr1  12600001 156000000 AAACCTGTCGACAGCC-1   322 2      
#>  2 chr1  12600001 156000000 AAAGATGGTAATAGCA-1   405 1      
#>  3 chr1  12600001 156000000 AACACGTAGCTATGCT-1   293 1      
#>  4 chr1  12600001 156000000 AACTCCCAGACAGGCT-1   339 2      
#>  5 chr1  12600001 156000000 AACTCCCGTACACCGC-1   312 1      
#>  6 chr1  12600001 156000000 AACTGGTCAAAGAATC-1   329 2      
#>  7 chr1  12600001 156000000 AACTGGTCAAAGTGCG-1   254 1      
#>  8 chr1  12600001 156000000 AACTTTCGTGGCTCCA-1   382 2      
#>  9 chr1  12600001 156000000 AACTTTCTCGGTTAAC-1   389 2      
#> 10 chr1  12600001 156000000 AAGACCTAGCCAGTAG-1   312 2      
#> # … with 14,102 more rows

If you want to know what genes have been used by CONGAS and to which segments these have been mapped you can use function

# All mapped genes
get_mapped_genes(rcongas_example)
#> # A tibble: 7,044 x 4
#>    gene     chr   from     to       
#>    <chr>    <chr> <chr>    <chr>    
#>  1 DHRS3    chr1  12600001 156000000
#>  2 HNRNPCL1 chr1  12600001 156000000
#>  3 PRDM2    chr1  12600001 156000000
#>  4 KAZN     chr1  12600001 156000000
#>  5 TMEM51   chr1  12600001 156000000
#>  6 EFHD2    chr1  12600001 156000000
#>  7 DNAJC16  chr1  12600001 156000000
#>  8 AGMAT    chr1  12600001 156000000
#>  9 DDI2     chr1  12600001 156000000
#> 10 PLEKHM2  chr1  12600001 156000000
#> # … with 7,034 more rows

# Genes mapped in chromosomes '1' and '5'
get_mapped_genes(rcongas_example, chromosomes = c('chr1', 'chr5'))
#> # A tibble: 1,205 x 4
#>    gene     chr   from     to       
#>    <chr>    <chr> <chr>    <chr>    
#>  1 DHRS3    chr1  12600001 156000000
#>  2 HNRNPCL1 chr1  12600001 156000000
#>  3 PRDM2    chr1  12600001 156000000
#>  4 KAZN     chr1  12600001 156000000
#>  5 TMEM51   chr1  12600001 156000000
#>  6 EFHD2    chr1  12600001 156000000
#>  7 DNAJC16  chr1  12600001 156000000
#>  8 AGMAT    chr1  12600001 156000000
#>  9 DDI2     chr1  12600001 156000000
#> 10 PLEKHM2  chr1  12600001 156000000
#> # … with 1,195 more rows

Post-clustering analysis

get_DE_table to obtain results from DE analysis;

Results from Differential Expression (DE) analysis using Seurat are available by using get_DE_table. By default there are returned sorted by adjusted p-value, and filters can be applied to subset by maximum adjusted p-value (cut_pvalue), absolute log-fold change (cut_lfc), and chromosome id.

Note that the filters are applied jointly (i.e., as intersection).

# Default results (sorted by adjusted p-value, default filters)
get_DE_table(rcongas_example)
#> # A tibble: 132 x 8
#>    chr        from       to gene    pct_detec_1 ptc_detec_2 p_val_adj avg_log2FC
#>    <chr>     <int>    <int> <chr>         <dbl>       <dbl>     <dbl>      <dbl>
#>  1 chrX   71475529   7.15e7 RPS4X         1           1      9.12e-50     -0.483
#>  2 chrX    1505045   1.51e6 SLC25A6       0.997       1      6.03e-47     -0.688
#>  3 chrX   73040486   7.31e7 XIST          0.068       0.748  3.25e-26     -1.79 
#>  4 chr15  66790355   6.68e7 RPL4          1           1      4.23e-26      0.482
#>  5 chr16   2012053   2.01e6 RPS2          1           1      7.45e-23      0.615
#>  6 chr14 102547075   1.03e8 HSP90A…       1           1      3.46e-21      0.765
#>  7 chr18  43664110   4.37e7 ATP5A1        0.995       0.933  9.63e-21      0.785
#>  8 chr6   29909037   2.99e7 HLA-A         1           1      8.27e-19     -0.793
#>  9 chr15  78832747   7.88e7 PSMA4         0.997       0.941  4.18e-18      0.834
#> 10 chr8  124510129   1.25e8 FBXO32        0.501       0.822  1.57e-17     -1.36 
#> # … with 122 more rows

# DE filtered by p-value cut at alpha-level 5%
get_DE_table(rcongas_example, cut_pvalue = 0.05)
#> # A tibble: 222 x 8
#>    chr        from       to gene    pct_detec_1 ptc_detec_2 p_val_adj avg_log2FC
#>    <chr>     <int>    <int> <chr>         <dbl>       <dbl>     <dbl>      <dbl>
#>  1 chrX   71475529   7.15e7 RPS4X         1           1      9.12e-50     -0.483
#>  2 chrX    1505045   1.51e6 SLC25A6       0.997       1      6.03e-47     -0.688
#>  3 chrX   73040486   7.31e7 XIST          0.068       0.748  3.25e-26     -1.79 
#>  4 chr15  66790355   6.68e7 RPL4          1           1      4.23e-26      0.482
#>  5 chr16   2012053   2.01e6 RPS2          1           1      7.45e-23      0.615
#>  6 chr14 102547075   1.03e8 HSP90A…       1           1      3.46e-21      0.765
#>  7 chr18  43664110   4.37e7 ATP5A1        0.995       0.933  9.63e-21      0.785
#>  8 chr6   29909037   2.99e7 HLA-A         1           1      8.27e-19     -0.793
#>  9 chr15  78832747   7.88e7 PSMA4         0.997       0.941  4.18e-18      0.834
#> 10 chr8  124510129   1.25e8 FBXO32        0.501       0.822  1.57e-17     -1.36 
#> # … with 212 more rows

# DE filtered to retain all values, regardless the LFC
get_DE_table(rcongas_example, cut_lfc = 0)
#> # A tibble: 135 x 8
#>    chr        from       to gene    pct_detec_1 ptc_detec_2 p_val_adj avg_log2FC
#>    <chr>     <int>    <int> <chr>         <dbl>       <dbl>     <dbl>      <dbl>
#>  1 chrX   71475529   7.15e7 RPS4X         1           1      9.12e-50     -0.483
#>  2 chrX    1505045   1.51e6 SLC25A6       0.997       1      6.03e-47     -0.688
#>  3 chrX   73040486   7.31e7 XIST          0.068       0.748  3.25e-26     -1.79 
#>  4 chr15  66790355   6.68e7 RPL4          1           1      4.23e-26      0.482
#>  5 chr16   2012053   2.01e6 RPS2          1           1      7.45e-23      0.615
#>  6 chr14 102547075   1.03e8 HSP90A…       1           1      3.46e-21      0.765
#>  7 chr18  43664110   4.37e7 ATP5A1        0.995       0.933  9.63e-21      0.785
#>  8 chr6   29909037   2.99e7 HLA-A         1           1      8.27e-19     -0.793
#>  9 chr15  78832747   7.88e7 PSMA4         0.997       0.941  4.18e-18      0.834
#> 10 chr8  124510129   1.25e8 FBXO32        0.501       0.822  1.57e-17     -1.36 
#> # … with 125 more rows
…
