Retrieve the CN table — get_input_segmentation • Rcongas
…
chromosomes
filter for specific chromosomes

    Value

    The CN table stored by the Rcongas object

    Examples

x = Rcongas::congas_example

get_input_segmentation(x)
#> # A tibble: 70 × 12
#>    chr       start     end ploidy_real   tot   from     to   dist    mu fixed_mu
#>    <chr>     <int>   <int>       <int> <int>  <int>  <int>  <int> <dbl>    <int>
#>  1 chr1          1  1.26e7           1     1 1   e0 1.26e7 1.26e7    16       73
#>  2 chr1   12600001  6.02e7           2     2 1.26e7 6.02e7 4.75e7   102      302
#>  3 chr1   61200001  7.71e7           2     2 6.12e7 7.71e7 1.59e7    11       32
#>  4 chr1   78750001  1.56e8           2     2 7.88e7 1.56e8 7.72e7    87      261
#>  5 chr1  156000001  2.49e8           3     3 1.56e8 2.49e8 9.33e7   116      350
#>  6 chr2          1  2.62e7           1     1 1   e0 2.62e7 2.62e7    15       56
#>  7 chr2   26250001  3.81e7           2     2 2.63e7 3.81e7 1.18e7    19       59
#>  8 chr2   64050001  8.72e7           2     2 6.41e7 8.72e7 2.31e7    35       95
#>  9 chr2   88350001  1.60e8           2     2 8.84e7 1.60e8 7.15e7    48      159
#> 10 chr2  159900001  1.77e8           1     1 1.60e8 1.77e8 1.69e7    11       35
#> # … with 60 more rows, and 2 more variables: segment_id <chr>, size <int>
…
